{
    "defaultSeverity": "error",
    "extends": ["tslint:latest", "tslint-config-prettier"],
    "jsRules": {},
    "rules": {
      "no-console": false,
      "member-access": false,
      "object-literal-sort-keys": false,
      "ordered-imports": false,
      "interface-name": false,
      "no-submodule-imports": false,
      "trailing-comma": [ false ],
      "quotemark": [true, "single", "jsx-double"]
    },
    "rulesDirectory": []
}
